[{
        "id": "1",
        "titre": "Chef de projet",
        "description": "desc 1"
    },
    {
        "id": "2",
        "titre": "Directeur de projet",
        "description": "desc 2"
    },
    {
        "id": "3",
        "titre": "Directeur technique",
        "description": "desc 3"
    }
]