[{
        "id": "0",
        "titre": "INGENIEUR D’ETUDES ET DEVELOPPEMENT .NET FULL STACK",
        "description": "Dans le cadre de nouveaux projets innovants, nous recherchons un Ingénieur d’études et Développement .NET Full stack confirmé (plus de 3 ans d’expérience).",
        "prerequis": [
            "Bonne maitrise des technologies Microsoft .NET, C# avec une approche Full Stack (Back, Front,SGBD) ",
            "Autonomie / Force de proposition / Rigueur",
            "Expérience en méthode AGILE Anglais technique"
        ],
        "role": [
            "Développement de la plateforme dans une architecture orienté micro-services",
            "Améliorer en continue la qualité du code (performances, réactivité et sécurité de la plateforme)",
            "Mise en place de la maintenance applicative et du monitoring de la plateforme à l’ouverture du service",
            "Veille technologique"
        ],
        "techno": [
            ".NET C#",
            "architecture cloud, API REST, et micro services",
            "MS SQL SERVER 2008 et +",
            "T-SQL",
            "MVC / JQuery",
            "Java script, Powershell",
            "Angular 4 et +",
            "WCF",
            "Methodes TDD, BDD",
            "NHibernate",
            "Git, Jenkins, Docker et Devops"
        ],
        "demarrage": "ASAP"
    },
    {
        "id": "1",
        "titre": "INGENIEUR D’ETUDES ET DEVELOPPEMENT JAVA/J2EE FULL STACK",
        "description": "Dans le cadre de nouveaux projets innovants, nous recherchons un Ingénieur d’études et Développement Full stack confirmé (plus de 3 ans d’expérience).",
        "prerequis": [
            " Bonne maitrise des technologies JAVA/J2EE, avec une approche Full Stack (Back, Front, SGBD)",
            "Autonomie / Force de proposition / Rigueur",
            "Expérience en méthode AGILE Anglais technique",
            "Pratique de la méthode TDD, BDD",
            "Anglais technique"
        ],
        "role": [
            "Développement de la plateforme dans une architecture orienté micro-services",
            "Améliorer en continue la qualité du code (performances, réactivité et sécurité de la plateforme)",
            "Mise en place de la maintenance applicative et du monitoring de la plateforme à l’ouverture du service",
            "Veille technologique"
        ],
        "techno": [
            "JAVA/J2EE",
            "Spring Boot, Spring Data",
            "Webservices (REST ou SOAP)",
            "Oracle",
            "Angular 2 à 6",
            "JSQL, PL/SQL",
            "Git, Jenkins, Docker et Devops"
        ],
        "demarrage": "ASAP"
    },
    {
        "id": "2",
        "titre": "MOA FINANCE/COMPTABILITE",
        "description": "Afin de soutenir une croissance constante, notre cabinet renforce son centre de compétences dédié à la finance et risques bancaires notamment pour accompagner nos clients dans leurs projets de développement et de transformation de leur SI et process.Dans votre rôle de consultant senior, vous accompagnerez nos clients sur la MOA, l’administration et les projets de déploiement des systèmes d’information finance/comptabilité:• Conception et mise en œuvre les interfaces comptables entre les systèmes d’Opérations « Métiers » et les systèmes « Finance »,Administration et l’évolution des plans de comptes dans le cadre des évolutions réglementaires et organisationnelles,• Assiste les équipes de « Contrôle comptable » et de « Back Office » dans leurs travaux de fiabilisation et de maintien de la qualité comptable.",
        "role": [
            "Comprendre et formaliser les processus de traitements des opérations gérées par les Systèmes d’Opérations Métiers",
            "Définir l’ensemble des informations nécessaires à l’alimentation des systèmes de synthèse Finance et à la production des états financiers pour bâtir les interfaces comptables dans le respect des règles et normes comptables du Groupe,",
            "Etudier les impacts des évolutions règlementaires sur les interfaces comptables de l'activité de la banque de détail",
            "Définir les schémas comptables opérationnels à paramétrer dans l’interpréteur comptable Finance, qui alimentera l’ensemble des plates-formes Finance",
            "Définir les flux de données nécessaires à l’alimentation des systèmes de synthèse Finance conformément aux principes d’architecture du SI Finance du groupe",
            "Répondre aux besoins d’alimentation des outils de contrôles et de certification des comptes déployés dans les Back Office",
            "Rédiger des spécifications fonctionnelles à destination des équipes MOA des systèmes d’Opérations Métiers",
            "Définir la stratégie de recette et le cahier de recette",
            "Réaliser les phases de recette comptable et assurer la liaison et le support aux utilisateurs",
            "Participer au suivi post démarrage en relation avec les équipes Back Office Métiers et les équipes Reporting",
            "Réaliser un bilan de mise en production et assurer le suivi du plan d’action de correction définitive des éventuelles anomalies",
            "Assurer la maintenance d&#39;un parc d&#39;interfaces comptables",
            "Coordonner les tâches et actions des différents acteurs (MOA et utilisateurs Métiers, équipes IT, équipes Reporting) en veillant à la qualité des livrables et au respect des budgets et plannings",
            "Représenter le département dans les instances de suivi de projets."
        ],
        "prerequis": [
            "Vous êtes diplômé(e) d'une grande école d’ingénieur, universitaire ou école de commerce une spécialisation en banque et finance",
            "Vous maîtrisez la comptabilité bancaire",
            "Vous maîtrisez la gestion de projet en MOA",
            "Vous êtes en capacité d’assurer un pilotage fonctionnel transverse",
            "Vous êtes en capacité de gérer et coordonner plusieurs projets en parallèle",
            "Vous avez une connaissance du cycle de vie des opérations bancaires de la banque de détail",
            "Vous êtes reconnus pour vos qualités de communication, de rédaction, de synthèse, de gestion du stress et de travail en équipe.",
            "Vous maitrisez l’anglais à l’oral et à l’écrit."
        ],
        "techno": [],
        "demarrage": ""
    }
]